…
```
## # A tibble: 24 x 6
##       ss sum.ss mod.m  error sum.error   pre
##    <dbl>  <dbl> <dbl>  <dbl>     <dbl> <dbl>
##  1  8.30  3244.  42.4   3.81      716. 0.779
##  2 16.9   3244.  42.4  44.3       716. 0.779
##  3 15.8   3244.  42.4  30.5       716. 0.779
##  4 12.4   3244.  42.4   4.38      716. 0.779
##  5 20.1   3244.  42.4  97.4       716. 0.779
##  6  7.86  3244.  42.4   5.77      716. 0.779
##  7 17.3   3244.  42.4  49.9       716. 0.779
##  8 -2.95  3244.  42.4 174.        716. 0.779
##  9  8.43  3244.  42.4   3.34      716. 0.779
## 10  5.42  3244.  42.4  23.4       716. 0.779
## # ... with 14 more rows
```
…
