…
```
## # A tibble: 24 x 12
##    individ gruppe    rm dummykodet avg.x x.avg.x avg.rm rm.avg.rm   ssc sum.ssc
##      <int> <chr>  <dbl>      <dbl> <dbl>   <dbl>  <dbl>     <dbl> <dbl>   <dbl>
##  1       1 "tre.~  40.5          1   0.5     0.5   32.2      8.30  4.15    123.
##  2       2 "tre.~  49.1          1   0.5     0.5   32.2     16.9   8.45    123.
##  3       3 "tre.~  47.9          1   0.5     0.5   32.2     15.8   7.89    123.
##  4       4 "tre.~  44.5          1   0.5     0.5   32.2     12.4   6.18    123.
##  5       5 "tre.~  52.3          1   0.5     0.5   32.2     20.1  10.1     123.
##  6       6 "tre.~  40.0          1   0.5     0.5   32.2      7.86  3.93    123.
##  7       7 "tre.~  49.5          1   0.5     0.5   32.2     17.3   8.66    123.
##  8       8 "tre.~  29.2          1   0.5     0.5   32.2     -2.95 -1.48    123.
##  9       9 "tre.~  40.6          1   0.5     0.5   32.2      8.43  4.22    123.
## 10      10 "tre.~  37.6          1   0.5     0.5   32.2      5.42  2.71    123.
## # ... with 14 more rows, and 2 more variables: ssx <dbl>, tot <dbl>
```
